data/datasets/genes/yeastX.csv
Iteration 1/50
  KMEANS Precision = 0.8102665209748682, Recall = 0.07447322744391682, F-Measure = 0.1364088434245176
  FUZZY-KMEANS Precision = 0.7921199360798822, Recall = 0.2699110310572567, F-Measure = 0.40262838897186565
  OKM Precision = 0.7845260643030797, Recall = 0.8801100376616997, F-Measure = 0.8295738187888677

Iteration 2/50
  KMEANS Precision = 0.8089725305100415, Recall = 0.0760382075214235, F-Measure = 0.1390103385431842
  FUZZY-KMEANS Precision = 0.7772562896503811, Recall = 0.3976507832541892, F-Measure = 0.5261293926925286
  OKM Precision = 0.783867079920618, Recall = 0.7650905518257737, F-Measure = 0.7743650109504301

Iteration 3/50
  KMEANS Precision = 0.8059318671352454, Recall = 0.07450204683150483, F-Measure = 0.1363954131157645
  FUZZY-KMEANS Precision = 0.7795086489468731, Recall = 0.4090348780088423, F-Measure = 0.5365326854212917
  OKM Precision = 0.7860482534600505, Recall = 0.8542031548496262, F-Measure = 0.8187097350662309

Iteration 4/50
  KMEANS Precision = 0.8063150442477877, Recall = 0.07459767479941051, F-Measure = 0.1365611510791367
  FUZZY-KMEANS Precision = 0.787916964889986, Recall = 0.2826478903989957, F-Measure = 0.41604778418701027
  OKM Precision = 0.7842661611747683, Recall = 0.8487344577261067, F-Measure = 0.8152277559645029

Iteration 5/50
  KMEANS Precision = 0.8073288808462213, Recall = 0.07558583046776923, F-Measure = 0.1382299403043357
  FUZZY-KMEANS Precision = 0.7793560146808668, Recall = 0.3719098302494405, F-Measure = 0.5035329839762387
  OKM Precision = 0.7849457893012557, Recall = 0.7993026581518476, F-Measure = 0.7920591708986556

Iteration 6/50
  KMEANS Precision = 0.8034836811812167, Recall = 0.07418416025326129, F-Measure = 0.13582760892368306
  FUZZY-KMEANS Precision = 0.7758747553816047, Recall = 0.3678851591070356, F-Measure = 0.49911315165876774
  OKM Precision = 0.7838577534424588, Recall = 0.8091462256427051, F-Measure = 0.7963012659930431

Iteration 7/50
  KMEANS Precision = 0.8071935623204192, Recall = 0.07507406800938814, F-Measure = 0.13737170516327418
  FUZZY-KMEANS Precision = 0.776885658611518, Recall = 0.2862053381365646, F-Measure = 0.4183062847799595
  OKM Precision = 0.7836023281339737, Recall = 0.7846431963320779, F-Measure = 0.784122416813068

Iteration 8/50
  KMEANS Precision = 0.8109612755833259, Recall = 0.07486534577806889, F-Measure = 0.13707625136815613
  FUZZY-KMEANS Precision = 0.7847938013979223, Recall = 0.3387828175317941, F-Measure = 0.4732648414708721
  OKM Precision = 0.7841244856269999, Recall = 0.8605224605643796, F-Measure = 0.8205490343360372

Iteration 9/50
  KMEANS Precision = 0.8088215295590642, Recall = 0.07531553954478468, F-Measure = 0.1377995155342226
  FUZZY-KMEANS Precision = 0.7809049545155581, Recall = 0.4292669614104034, F-Measure = 0.5539984733800938
  OKM Precision = 0.7841049769113261, Recall = 0.7849065007368593, F-Measure = 0.7845055340963224

Iteration 10/50
  KMEANS Precision = 0.806842954616234, Recall = 0.07466448337972818, F-Measure = 0.136680667180645
  FUZZY-KMEANS Precision = 0.7716948031765435, Recall = 0.3230758146389389, F-Measure = 0.4554669683890224
  OKM Precision = 0.7841480000514842, Recall = 0.8778865782435457, F-Measure = 0.8283738660935605

Iteration 11/50
  KMEANS Precision = 0.8041416719245873, Recall = 0.07457322198569948, F-Measure = 0.1364889472659973
  FUZZY-KMEANS Precision = 0.7796713484821093, Recall = 0.35968429670869495, F-Measure = 0.4922704193838328
  OKM Precision = 0.7870008258968535, Recall = 0.8234476284045631, F-Measure = 0.8048118049432518

Iteration 12/50
  KMEANS Precision = 0.8026569223701568, Recall = 0.08315877954260138, F-Measure = 0.15070396677681974
  FUZZY-KMEANS Precision = 0.7895358477806752, Recall = 0.22329785492058293, F-Measure = 0.3481354554496494
  OKM Precision = 0.782996952422369, Recall = 0.8899867911140221, F-Measure = 0.8330707908319669

Iteration 13/50
  KMEANS Precision = 0.8100370463686161, Recall = 0.07580896239288248, F-Measure = 0.13864276042933163
  FUZZY-KMEANS Precision = 0.7820291137363844, Recall = 0.43071710059494567, F-Measure = 0.5554885407497886
  OKM Precision = 0.7856323002611953, Recall = 0.8252047377326566, F-Measure = 0.8049324431958061

Iteration 14/50
  KMEANS Precision = 0.8036801334543762, Recall = 0.07615348507177556, F-Measure = 0.1391241292825895
  FUZZY-KMEANS Precision = 0.7766660828238758, Recall = 0.3620758692211124, F-Measure = 0.4938995116988568
  OKM Precision = 0.7844349682850288, Recall = 0.8176322253152121, F-Measure = 0.8006896480947445

Iteration 15/50
  KMEANS Precision = 0.8009069315482618, Recall = 0.07611942579553518, F-Measure = 0.1390256409847427
  FUZZY-KMEANS Precision = 0.7902631378500156, Recall = 0.11778833033131379, F-Measure = 0.20501872149641248
  OKM Precision = 0.784360298328342, Recall = 1.0, F-Measure = 0.8791501347156863

Iteration 16/50
  KMEANS Precision = 0.8069001836063707, Recall = 0.07426494186998527, F-Measure = 0.13601172696890962
  FUZZY-KMEANS Precision = 0.782467108839839, Recall = 0.251387151356367, F-Measure = 0.3805220621404977
  OKM Precision = 0.7838182954329339, Recall = 0.793646635009006, F-Measure = 0.7887018476595401

Iteration 17/50
  KMEANS Precision = 0.8083212742010234, Recall = 0.07463610064952786, F-Measure = 0.13665427051590934
  FUZZY-KMEANS Precision = 0.7887045072716216, Recall = 0.33413416298237, F-Measure = 0.46940513781559257
  OKM Precision = 0.784434167773797, Recall = 0.8278613612794061, F-Measure = 0.8055629086171887

Iteration 18/50
  KMEANS Precision = 0.8090349173036109, Recall = 0.07473696850608591, F-Measure = 0.1368335383953676
  FUZZY-KMEANS Precision = 0.7776273765209154, Recall = 0.3802923421210633, F-Measure = 0.5107879787407495
  OKM Precision = 0.7853506931142851, Recall = 0.8092387970088969, F-Measure = 0.7971158145245423

Iteration 19/50
  KMEANS Precision = 0.8044731359152478, Recall = 0.07367763768353255, F-Measure = 0.1349920355731067
  FUZZY-KMEANS Precision = 0.7723769106894277, Recall = 0.349123301129851, F-Measure = 0.48088225741650054
  OKM Precision = 0.7836170369425594, Recall = 0.8504343649364118, F-Measure = 0.8156596009149991

Iteration 20/50
  KMEANS Precision = 0.8040165819638684, Recall = 0.07571246111020141, F-Measure = 0.1383927805342925
  FUZZY-KMEANS Precision = 0.7942984510041748, Recall = 0.20960253261284864, F-Measure = 0.3316800554992793
  OKM Precision = 0.784254095234168, Recall = 0.8304677692265706, F-Measure = 0.8066996097726501

Iteration 21/50
  KMEANS Precision = 0.8085233108377456, Recall = 0.0752792969816058, F-Measure = 0.13773452554814503
  FUZZY-KMEANS Precision = 0.7810739498787086, Recall = 0.400839255499154, F-Measure = 0.5297937261967904
  OKM Precision = 0.784360298328342, Recall = 1.0, F-Measure = 0.8791501347156863

Iteration 22/50
  KMEANS Precision = 0.7979097100727673, Recall = 0.07627356585339229, F-Measure = 0.1392372068701919
  FUZZY-KMEANS Precision = 0.782253643309882, Recall = 0.268536433600786, F-Measure = 0.3998203031441749
  OKM Precision = 0.7848084136142512, Recall = 0.7875688008296491, F-Measure = 0.786186184222714

Iteration 23/50
  KMEANS Precision = 0.808350196632431, Recall = 0.07395753506904645, F-Measure = 0.13551640967766326
  FUZZY-KMEANS Precision = 0.7793964064917938, Recall = 0.2678683477976093, F-Measure = 0.3987064910401009
  OKM Precision = 0.7858915506178554, Recall = 0.9073792915233885, F-Measure = 0.8422772077172088

Iteration 24/50
  KMEANS Precision = 0.804749076214573, Recall = 0.07721936575514438, F-Measure = 0.14091709022727447
  FUZZY-KMEANS Precision = 0.7875105033904771, Recall = 0.2983356803667922, F-Measure = 0.4327362113334317
  OKM Precision = 0.7849855160463738, Recall = 0.9799875552644506, F-Measure = 0.871714191329794

Iteration 25/50
  KMEANS Precision = 0.8058350100603622, Recall = 0.07484918945472409, F-Measure = 0.13697554099521306
  FUZZY-KMEANS Precision = 0.7857451550814123, Recall = 0.3429655586485454, F-Measure = 0.47750680983144816
  OKM Precision = 0.7851744623251616, Recall = 0.9847977730473227, F-Measure = 0.8737290297536481

Iteration 26/50
  KMEANS Precision = 0.8039814431437498, Recall = 0.07461383112275531, F-Measure = 0.1365546512292316
  FUZZY-KMEANS Precision = 0.7738437803531005, Recall = 0.3346695049396867, F-Measure = 0.46725992066576616
  OKM Precision = 0.7828094012299925, Recall = 0.8190378254462093, F-Measure = 0.8005139304734268

Iteration 27/50
  KMEANS Precision = 0.8071264607679466, Recall = 0.07431079089569347, F-Measure = 0.13609183305857359
  FUZZY-KMEANS Precision = 0.7844628814100943, Recall = 0.3183625347961356, F-Measure = 0.452915915264861
  OKM Precision = 0.784655676325105, Recall = 0.8404200644069647, F-Measure = 0.8115810943524001

Iteration 28/50
  KMEANS Precision = 0.8128909320439225, Recall = 0.07451034332187108, F-Measure = 0.1365082158685461
  FUZZY-KMEANS Precision = 0.777268416376324, Recall = 0.3399735822280443, F-Measure = 0.47304116422095405
  OKM Precision = 0.7835563363741416, Recall = 0.9104581627640412, F-Measure = 0.8422540217929166

Iteration 29/50
  KMEANS Precision = 0.8040679806400559, Recall = 0.07631417499044812, F-Measure = 0.13939806522960693
  FUZZY-KMEANS Precision = 0.7843671580587549, Recall = 0.39389727634954425, F-Measure = 0.5244325097065833
  OKM Precision = 0.7845567958157665, Recall = 0.9997873478521915, F-Measure = 0.8791913386345306

Iteration 30/50
  KMEANS Precision = 0.8063124378859314, Recall = 0.07475094154249222, F-Measure = 0.13681788465319394
  FUZZY-KMEANS Precision = 0.7847899965428845, Recall = 0.26267954805960375, F-Measure = 0.39361198170552175
  OKM Precision = 0.782942518464149, Recall = 0.8738047049833524, F-Measure = 0.8258820014098156

Iteration 31/50
  KMEANS Precision = 0.8067493674244937, Recall = 0.07434441351454615, F-Measure = 0.13614284851831165
  FUZZY-KMEANS Precision = 0.7815562769650211, Recall = 0.36425871950221056, F-Measure = 0.496919117909861
  OKM Precision = 0.7846332106474723, Recall = 0.8226149227662245, F-Measure = 0.8031752839627653

Iteration 32/50
  KMEANS Precision = 0.8034356466935619, Recall = 0.075482342666885, F-Measure = 0.13799968945599317
  FUZZY-KMEANS Precision = 0.7803848190644307, Recall = 0.38608198242454017, F-Measure = 0.5165899580062078
  OKM Precision = 0.7842813987211269, Recall = 0.9985144915670542, F-Measure = 0.8785260795759819

Iteration 33/50
  KMEANS Precision = 0.8098173526849679, Recall = 0.07428590142459472, F-Measure = 0.1360882040731109
  FUZZY-KMEANS Precision = 0.7877501644273232, Recall = 0.29287571639102666, F-Measure = 0.4269986455795121
  OKM Precision = 0.7832697698251248, Recall = 0.8256789476556956, F-Measure = 0.8039154414968945

Iteration 34/50
  KMEANS Precision = 0.8092962065571287, Recall = 0.07467452649964522, F-Measure = 0.13673260609801485
  FUZZY-KMEANS Precision = 0.7806850057751691, Recall = 0.274771464439714, F-Measure = 0.4064780848030562
  OKM Precision = 0.7859613300136385, Recall = 0.8827422083947383, F-Measure = 0.831545237605067

Iteration 35/50
  KMEANS Precision = 0.8101175297117746, Recall = 0.07518541564325092, F-Measure = 0.13760040788486844
  FUZZY-KMEANS Precision = 0.7829717982969434, Recall = 0.43382304459363574, F-Measure = 0.5583048142466184
  OKM Precision = 0.7843803249030784, Recall = 0.8436159598275204, F-Measure = 0.8129204800641591

Iteration 36/50
  KMEANS Precision = 0.8094445426055258, Recall = 0.07601506467987555, F-Measure = 0.13897862478349954
  FUZZY-KMEANS Precision = 0.7855960359154079, Recall = 0.30128399104852355, F-Measure = 0.4355356675633307
  OKM Precision = 0.7848293542124505, Recall = 0.989762130888052, F-Measure = 0.8754627535754411

Iteration 37/50
  KMEANS Precision = 0.8126579397778294, Recall = 0.07484525953823482, F-Measure = 0.13706676092063955
  FUZZY-KMEANS Precision = 0.779804825259894, Recall = 0.35492735112712187, F-Measure = 0.4878227070406872
  OKM Precision = 0.784360298328342, Recall = 1.0, F-Measure = 0.8791501347156863

Iteration 38/50
  KMEANS Precision = 0.8101129033015876, Recall = 0.07528934010152284, F-Measure = 0.13777436493242806
  FUZZY-KMEANS Precision = 0.7820672191528545, Recall = 0.43020228153485074, F-Measure = 0.5550698121206744
  OKM Precision = 0.7846477724291036, Recall = 0.8744548878336336, F-Measure = 0.8271207035732732

Iteration 39/50
  KMEANS Precision = 0.8053344413682987, Recall = 0.07532208940560013, F-Measure = 0.13775966151263536
  FUZZY-KMEANS Precision = 0.7813302417922148, Recall = 0.3725656896457617, F-Measure = 0.5045460902382134
  OKM Precision = 0.7844336700071793, Recall = 0.870716663937558, F-Measure = 0.8253262005525491

Iteration 40/50
  KMEANS Precision = 0.8034397804673951, Recall = 0.07504524862180012, F-Measure = 0.13726890289828333
  FUZZY-KMEANS Precision = 0.7783367180065991, Recall = 0.41253163036952134, F-Measure = 0.539251069513375
  OKM Precision = 0.784343246179247, Recall = 0.8733099721630916, F-Measure = 0.8264391742587575

Iteration 41/50
  KMEANS Precision = 0.8086891483203799, Recall = 0.07601157142077397, F-Measure = 0.13896164337414413
  FUZZY-KMEANS Precision = 0.7824081974876274, Recall = 0.2762665793351891, F-Measure = 0.408346814519213
  OKM Precision = 0.784360298328342, Recall = 1.0, F-Measure = 0.8791501347156863

Iteration 42/50
  KMEANS Precision = 0.8115393798660107, Recall = 0.07569193821297963, F-Measure = 0.1384689366719335
  FUZZY-KMEANS Precision = 0.7850957900279797, Recall = 0.29491490639157253, F-Measure = 0.42876695979420976
  OKM Precision = 0.7854850198490257, Recall = 0.7896883357895311, F-Measure = 0.7875810695905612

Iteration 43/50
  KMEANS Precision = 0.804786390549201, Recall = 0.07490289831341083, F-Measure = 0.13705028340918743
  FUZZY-KMEANS Precision = 0.7763802072324562, Recall = 0.29672004803231267, F-Measure = 0.42934958080782876
  OKM Precision = 0.7844579782032035, Recall = 0.7842161454069101, F-Measure = 0.7843370431641228

Iteration 44/50
  KMEANS Precision = 0.8087373696509906, Recall = 0.0741981332896676, F-Measure = 0.1359256773565994
  FUZZY-KMEANS Precision = 0.7857072974169594, Recall = 0.41379400687735385, F-Measure = 0.5420935678301985
  OKM Precision = 0.782174511081464, Recall = 0.8256186889361934, F-Measure = 0.8033096474736854

Iteration 45/50
  KMEANS Precision = 0.8022484632804917, Recall = 0.07363047868566126, F-Measure = 0.1348815128345931
  FUZZY-KMEANS Precision = 0.782686840334029, Recall = 0.32192784236668304, F-Measure = 0.45621100226819944
  OKM Precision = 0.782761972615995, Recall = 0.8505775885595764, F-Measure = 0.8152619417418028

Iteration 46/50
  KMEANS Precision = 0.807937808433207, Recall = 0.07406233284209378, F-Measure = 0.13568650634765528
  FUZZY-KMEANS Precision = 0.7773740090343414, Recall = 0.29938060149555157, F-Measure = 0.43228177736276957
  OKM Precision = 0.7806560495276995, Recall = 0.8075214235030839, F-Measure = 0.7938615111797181

Iteration 47/50
  KMEANS Precision = 0.806618392743747, Recall = 0.07432389061732438, F-Measure = 0.13610657207524718
  FUZZY-KMEANS Precision = 0.7940394894879569, Recall = 0.2038045958190055, F-Measure = 0.32435708063477636
  OKM Precision = 0.7851249874442354, Recall = 0.9078792642323017, F-Measure = 0.8420518675312267

Iteration 48/50
  KMEANS Precision = 0.8108416915840057, Recall = 0.07684908029037717, F-Measure = 0.14039221817694492
  FUZZY-KMEANS Precision = 0.7795834921514952, Recall = 0.4027806342448556, F-Measure = 0.5311411711595511
  OKM Precision = 0.7833068929433421, Recall = 0.8766394847442825, F-Measure = 0.8273493171304334

Iteration 49/50
  KMEANS Precision = 0.8073435895546787, Recall = 0.07655913978494623, F-Measure = 0.13985595626200995
  FUZZY-KMEANS Precision = 0.7793774165028173, Recall = 0.33526816221821953, F-Measure = 0.46884936179463244
  OKM Precision = 0.7840344408549338, Recall = 0.8908151301784837, F-Measure = 0.8340208632153832

Iteration 50/50
  KMEANS Precision = 0.8104425779734612, Recall = 0.0757142077397522, F-Measure = 0.13849020556884054
  FUZZY-KMEANS Precision = 0.7967200810909615, Recall = 0.2512321379837345, F-Measure = 0.38200537334381934
  OKM Precision = 0.7834735862841593, Recall = 0.9182490038753344, F-Measure = 0.8455242286001942

KMEANS PRECISION = 0.8069924745295752+-0.0030981640735464173
FUZZY-KMEANS PRECISION = 0.7824103905729218+-0.005463673197931158
OKM PRECISION = 0.7842821521511568+-0.0010421298320839583
KMEANS RECALL = 0.07525309753834397+-0.0013961511649217152
FUZZY-KMEANS RECALL = 0.3288402510779979+-0.06734946639083285
OKM RECALL = 0.8693664581627638+-0.06914081083903055
KMEANS F-MEASURE = 0.1376642847575313+-0.0023129636743188277
FUZZY-KMEANS F-MEASURE = 0.4586770956993035+-0.07000042093408933
OKM F-MEASURE = 0.8233738092079327+-0.030404142970135634
